collins_autotime_analysis
…
# look at hours and quantity of operations per product line
engines %>% 
  group_by(PRODUCT_LINE,OPERATION_NUM) %>%
  summarise(total_hrs = sum(HRS),
            total_qty = sum(adj_quantity)) %>% 
  mutate(OPERATION_NUM = str_remove(OPERATION_NUM, "^0+")) %>% 
  arrange(desc(total_qty))

## `summarise()` regrouping output by 'PRODUCT_LINE' (override with `.groups` argument)

## # A tibble: 802 x 4
## # Groups:   PRODUCT_LINE [6]
##    PRODUCT_LINE OPERATION_NUM total_hrs total_qty
##    <fct>        <chr>             <dbl>     <dbl>
##  1 56           20                4310.    121122
##  2 56           30                5030.    110618
##  3 56           50                4372.    110290
##  4 56           10                3896.    104879
##  5 58           10                4184.    101437
##  6 56           40                3431.     95023
##  7 51           20                8217.     86646
##  8 53           20                4368.     86100
##  9 56           60                2135.     79428
## 10 51           30                7693.     79238
## #  with 792 more rows

engines_time <- engines %>% 
  group_by(PRODUCT_LINE, WORK_ORDER) %>% 
  summarise(first = first(POST_DATE, order_by = WORK_ORDER),
            last = last(POST_DATE, order_by = WORK_ORDER),
            cycle_time = sum(HRS),
            lead_time = as.numeric(difftime(last,first, units = "hours")),
            lead_time = ifelse(lead_time == 0, cycle_time, lead_time)) %>%
  mutate(non_value_time = lead_time - cycle_time)

## `summarise()` regrouping output by 'PRODUCT_LINE' (override with `.groups` argument)

engines_time

## # A tibble: 49,135 x 7
## # Groups:   PRODUCT_LINE [6]
##    PRODUCT_LINE WORK_ORDER first      last       cycle_time lead_time
##    <fct>             <dbl> <date>     <date>          <dbl>     <dbl>
##  1 51            160118189 2017-01-07 2017-01-16       6.43    216   
##  2 51            160118195 2017-01-13 2017-01-30       9.99    408   
##  3 51            160139747 2017-01-07 2017-01-16       4.57    216   
##  4 51            160193360 2017-01-03 2017-01-17       5.03    336   
##  5 51            160193363 2017-01-07 2017-01-17       8.89    240   
##  6 51            160193364 2017-01-03 2017-01-27       4.62    576   
##  7 51            160270115 2017-01-03 2017-02-20       7.35   1152   
##  8 51            160286797 2017-01-04 2017-01-04       0.15      0.15
##  9 51            160304976 2017-01-03 2017-01-17       5.59    336   
## 10 51            160304977 2017-01-12 2017-01-30       7.79    432   
## #  with 49,125 more rows, and 1 more variable: non_value_time <dbl>
…
# breakdown of work order cycle time for each operations
engines_ops_time <- engines %>% 
  group_by(PRODUCT_LINE, OPERATION_NUM, WORK_ORDER) %>% 
  summarise(first = first(POST_DATE, order_by = WORK_ORDER),
            last = last(POST_DATE, order_by = WORK_ORDER),
            cycle_time = sum(HRS),
            lead_time = as.numeric(difftime(last,first, units = "hours")),
            lead_time = ifelse(lead_time == 0, cycle_time, lead_time)) %>%
  mutate(non_value_time = lead_time - cycle_time)

## `summarise()` regrouping output by 'PRODUCT_LINE', 'OPERATION_NUM' (override with `.groups` argument)

engines_ops_time

## # A tibble: 555,855 x 8
## # Groups:   PRODUCT_LINE, OPERATION_NUM [802]
##    PRODUCT_LINE OPERATION_NUM WORK_ORDER first      last       cycle_time
##    <fct>        <chr>              <dbl> <date>     <date>          <dbl>
##  1 51           0001           160709895 2017-01-11 2017-01-23       0.27
##  2 51           0001           160733332 2017-01-18 2017-01-18       0.03
##  3 51           0001           160733335 2017-01-18 2017-01-18       0.71
##  4 51           0001           160751575 2017-01-23 2017-01-23       1.56
##  5 51           0001           160766721 2017-01-23 2017-01-23       0.34
##  6 51           0001           160786293 2017-01-30 2017-01-30       0.55
##  7 51           0001           160786297 2017-01-30 2017-01-30       3.45
##  8 51           0001           160803181 2017-01-30 2017-01-30       0.01
##  9 51           0001           160806767 2017-02-01 2017-02-01       4.02
## 10 51           0001           160814853 2017-02-06 2017-02-06       0.01
## #  with 555,845 more rows, and 2 more variables: lead_time <dbl>,
## #   non_value_time <dbl>

engines_ops_time %>% 
  group_by(PRODUCT_LINE, OPERATION_NUM) %>% 
  summarise(ops_nonvalue_time = mean(non_value_time, na.rm = TRUE),
            ops_cycle_time = mean(cycle_time, na.rm = TRUE),
            ops_lead_time = mean(lead_time, na.rm = TRUE)) %>% 
  arrange(desc(ops_nonvalue_time), .by_group = TRUE) %>% 
  top_n(n = 5, wt = ops_nonvalue_time)

## `summarise()` regrouping output by 'PRODUCT_LINE' (override with `.groups` argument)

## # A tibble: 30 x 5
## # Groups:   PRODUCT_LINE [6]
##    PRODUCT_LINE OPERATION_NUM ops_nonvalue_time ops_cycle_time ops_lead_time
##    <fct>        <chr>                     <dbl>          <dbl>         <dbl>
##  1 51           0011                       93.3          9.14          102. 
##  2 51           0057                       83.8          0.912          84.7
##  3 51           2110                       65.2          0.914          66.1
##  4 51           2070                       65.0          1.03           66.0
##  5 51           0066                       52.9          0.521          53.4
##  6 52           0440                      466.           1.32          467. 
##  7 52           0460                      399.           1.12          400. 
##  8 52           0380                      384.           3.57          388. 
##  9 52           0154                      248.           2.42          251. 
## 10 52           0540                      232.           1.02          233. 
## #  with 20 more rows
…
# total hours and qty by part type, parts and product line
engines_parts %>% 
  group_by(PRODUCT_LINE, ROUTING_GROUP_ID, VALUATION_CLASS) %>%
  summarise(total_hrs = sum(HRS),
            total_qty = sum(adj_quantity)) %>% 
  arrange(desc(total_qty))

## `summarise()` regrouping output by 'PRODUCT_LINE', 'ROUTING_GROUP_ID' (override with `.groups` argument)

## # A tibble: 584 x 5
## # Groups:   PRODUCT_LINE, ROUTING_GROUP_ID [584]
##    PRODUCT_LINE ROUTING_GROUP_ID VALUATION_CLASS total_hrs total_qty
##    <fct>                   <dbl> <chr>               <dbl>     <dbl>
##  1 56                       5108 ZMFG               18376.    512207
##  2 56                       3923 ZMFG                9206.    400108
##  3 56                       5107 ZFIN               14000.    332532
##  4 59                       5191 ZFIN               14537.    221160
##  5 56                       1050 ZFIN                7514.    157821
##  6 56                       3160 ZMFG                3230.    111221
##  7 59                       1053 ZFIN                4168.    101442
##  8 51                       1007 ZFIN                8675.    100294
##  9 56                       3159 ZMFG                1276.     95948
## 10 51                       2933 ZFIN                7608.     93001
## #  with 574 more rows

# engines parts operation time and lead time
engines_parts_time <- engines_parts %>% 
  group_by(PRODUCT_LINE, ROUTING_GROUP_ID) %>%
  summarise(mean_ops_time = mean(HRS)) %>%
  arrange(desc(mean_ops_time), .by_group = TRUE) %>% 
  top_n(n = 10, wt = mean_ops_time) %>% 
  left_join(y = valuation, by = "ROUTING_GROUP_ID")

## `summarise()` regrouping output by 'PRODUCT_LINE' (override with `.groups` argument)

engines_parts_time

## # A tibble: 60 x 5
## # Groups:   PRODUCT_LINE [6]
##    PRODUCT_LINE ROUTING_GROUP_ID mean_ops_time MRP_TYPE VALUATION_CLASS
##    <fct>                   <dbl>         <dbl> <chr>    <chr>          
##  1 51                        878          1.86 PD       ZMFG           
##  2 51                       1020          1.46 MRP      ZMFG           
##  3 51                        977          1.32 YJ       ZFIN           
##  4 51                       1039          1.30 YJ       ZFIN           
##  5 51                        842          1.19 YJ       ZFIN           
##  6 51                        838          1.19 YJ       ZFIN           
##  7 51                       1277          1.19 MRP      ZMFG           
##  8 51                       1028          1.14 PD       ZMFG           
##  9 51                        827          1.12 YJ       ZFIN           
## 10 51                       1080          1.06 YJ       ZFIN           
## #  with 50 more rows
# engines parts cycle time, lead time and standard deviation and variation
engines_cov <- engines %>% 
  group_by(PRODUCT_LINE, ROUTING_GROUP_ID) %>%
  summarise(mean_parts_ops_time = mean(HRS),
            var_parts_ops_time = var(HRS),
            std_dev_parts_ops_time = sd(HRS),
            cov_parts = (std_dev_parts_ops_time/mean_parts_ops_time)) %>%
  arrange(desc(cov_parts), .by_group = TRUE) %>% 
  top_n(n = 10, wt = cov_parts)

## `summarise()` regrouping output by 'PRODUCT_LINE' (override with `.groups` argument)

engines_cov

## # A tibble: 60 x 6
## # Groups:   PRODUCT_LINE [6]
##    PRODUCT_LINE ROUTING_GROUP_ID mean_parts_ops_ var_parts_ops_t
##    <fct>                   <dbl>            <dbl>            <dbl>
##  1 51                       2928            0.296            0.276
##  2 51                       5185            0.434            0.585
##  3 51                        833            0.465            0.593
##  4 51                       1080            1.06             3.01 
##  5 51                       5279            1.00             2.02 
##  6 51                       1076            0.852            1.43 
##  7 51                       5274            0.679            0.781
##  8 51                       4055            0.460            0.351
##  9 51                       4430            0.604            0.570
## 10 51                       1007            0.388            0.231
## #  with 50 more rows, and 2 more variables: std_dev_parts_ops_time <dbl>,
## #   cov_parts <dbl>
…
# calculate average demand by product line
engines_demand <- autotime %>% 
  mutate(year = year(POST_DATE)) %>% 
  filter(area == "Engines") %>% 
  group_by(year, PRODUCT_LINE) %>%
  summarise(Hours = sum(HRS),
            Quantity = sum(adj_quantity, na.rm = TRUE),
            Work_orders = n_distinct(WORK_ORDER))

## `summarise()` regrouping output by 'year' (override with `.groups` argument)

engines_demand

## # A tibble: 24 x 5
## # Groups:   year [4]
##     year PRODUCT_LINE  Hours Quantity Work_orders
##    <dbl> <fct>         <dbl>    <dbl>       <int>
##  1  2017 51           25763.   283566        1969
##  2  2017 52           11140.   139389         555
##  3  2017 53           19222.   164171        2578
##  4  2017 56           21150.   651072        3927
##  5  2017 58            7946.   161984        1305
##  6  2017 59           20512.   271506        3001
##  7  2018 51           26342.   305500        2091
##  8  2018 52           14180.   197819         644
##  9  2018 53           12570.   147717        1880
## 10  2018 56           18037.   511608        3453
## #  with 14 more rows
…
